<svg xmlns="http://www.w3.org/2000/svg" width="25" height="25" viewBox="0 0 25 25">
    <g id="Group_18378" data-name="Group 18378" transform="translate(-237.906 -36.354)">
        <path id="Path_17593" fill="#595656" fill-rule="evenodd" d="M250.406 36.354a12.5 12.5 0 1 1-8.839 3.661 12.46 12.46 0 0 1 8.839-3.661" data-name="Path 17593"/>
        <text id="EN" fill="#fff" font-family="Helvetica" font-size="15px" transform="translate(240.806 54.069)">
            <tspan x="0" y="0">EN</tspan>
        </text>
    </g>
</svg>
